com\mycompany\oxprogram\BoardFrame$1.class
com\mycompany\oxprogram\BoardFrame.class
com\mycompany\oxprogram\Game.class
com\mycompany\oxprogram\MainProgram.class
com\mycompany\oxprogram\Player.class
com\mycompany\oxprogram\Table.class
com\mycompany\oxprogram\BoardFrame$2.class
